<svg width="18" height="20" viewBox="0 0 18 20" fill="none" xmlns="http://www.w3.org/2000/svg">
<path d="M9 9.34776C6.47869 9.34776 4.43476 7.30383 4.43476 4.78252C4.43476 2.26121 6.47869 0.217285 9 0.217285C11.5213 0.217285 13.5652 2.26121 13.5652 4.78252C13.5652 7.30383 11.5213 9.34776 9 9.34776Z" fill="#60C339"/>
<path d="M9 10.6519C13.6748 10.6519 17.4783 14.4554 17.4783 19.1302C17.4783 19.4902 17.1861 19.7824 16.8261 19.7824H1.17392C0.813922 19.7824 0.521729 19.4902 0.521729 19.1302C0.521729 14.4554 4.3252 10.6519 9 10.6519Z" fill="#60C339"/>
</svg>
