<svg width="22" height="22" viewBox="0 0 22 22" fill="none" xmlns="http://www.w3.org/2000/svg">
<path d="M18.2962 7.46832H17.2861V5.89609C17.3101 5.13032 17.1746 4.36769 16.8875 3.65342C16.6004 2.93914 16.1676 2.28776 15.6148 1.7379C15.062 1.18804 14.4004 0.75088 13.6693 0.452352C12.9381 0.153824 12.1523 0 11.3584 0C10.5645 0 9.77872 0.153824 9.04758 0.452352C8.31644 0.75088 7.65485 1.18804 7.10204 1.7379C6.54923 2.28776 6.11646 2.93914 5.82937 3.65342C5.54229 4.36769 5.40674 5.13032 5.43076 5.89609V17.3315C5.43076 17.7484 5.25911 18.1483 4.95357 18.4432C4.64803 18.738 4.23363 18.9037 3.80153 18.9037C3.36943 18.9037 2.95503 18.738 2.64949 18.4432C2.34395 18.1483 2.1723 17.7484 2.1723 17.3315V1.19511C2.1723 0.917127 2.05787 0.650525 1.85418 0.453958C1.65048 0.25739 1.37422 0.14696 1.08615 0.14696C0.798086 0.14696 0.52182 0.25739 0.318127 0.453958C0.114434 0.650525 0 0.917127 0 1.19511V17.3315C1.50238e-08 18.3044 0.400517 19.2375 1.11344 19.9255C1.82637 20.6135 2.7933 21 3.80153 21C4.80976 21 5.77669 20.6135 6.48962 19.9255C7.20254 19.2375 7.60306 18.3044 7.60306 17.3315V5.86988C7.58385 5.38238 7.66675 4.89614 7.84682 4.44028C8.02689 3.98442 8.30042 3.56831 8.65103 3.21685C9.00165 2.86539 9.42214 2.5858 9.88734 2.39483C10.3525 2.20386 10.8529 2.10543 11.3584 2.10543C11.864 2.10543 12.3643 2.20386 12.8295 2.39483C13.2947 2.5858 13.7152 2.86539 14.0658 3.21685C14.4164 3.56831 14.69 3.98442 14.87 4.44028C15.0501 4.89614 15.133 5.38238 15.1138 5.86988V7.44212H14.1037C13.1214 7.44212 12.1793 7.81868 11.4847 8.48898C10.7901 9.15927 10.3999 10.0684 10.3999 11.0163V13.7468C10.4013 13.8714 10.4533 13.9906 10.5446 14.0788C10.636 14.1669 10.7595 14.2171 10.8887 14.2184H21.5112C21.6404 14.2171 21.7639 14.1669 21.8553 14.0788C21.9466 13.9906 21.9986 13.8714 22 13.7468V11.0425C22 10.0946 21.6098 9.18548 20.9152 8.51518C20.2206 7.84489 19.2785 7.46832 18.2962 7.46832Z" fill="#ffffff"/>
<path d="M12.5 20.3058V17.5H19.5L19.5 20.3058L19.5 20.3073C19.501 20.6225 19.3773 20.9249 19.1564 21.1484C18.936 21.3715 18.6367 21.4977 18.3241 21.5H13.6896C13.3746 21.5 13.0721 21.3745 12.8489 21.1507C12.6257 20.9269 12.5 20.623 12.5 20.3058ZM19.5364 17H12.4688L20 20.3058V17.4649C20 17.3416 19.9511 17.2234 19.8642 17.1362C19.7773 17.049 19.6593 17 19.5364 17Z" stroke="#ffffff"/>
</svg>
